%YAML 1.1
%TAG !u! tag:unity3d.com,2011:
--- !u!1 &114710
GameObject:
  m_ObjectHideFlags: 0
  m_PrefabParentObject: {fileID: 0}
  m_PrefabInternal: {fileID: 100100000}
  serializedVersion: 4
  m_Component:
  - 4: {fileID: 454152}
  - 114: {fileID: 11409508}
  m_Layer: 0
  m_Name: GameManager
  m_TagString: Untagged
  m_Icon: {fileID: 0}
  m_NavMeshLayer: 0
  m_StaticEditorFlags: 0
  m_IsActive: 1
--- !u!4 &454152
Transform:
  m_ObjectHideFlags: 1
  m_PrefabParentObject: {fileID: 0}
  m_PrefabInternal: {fileID: 100100000}
  m_GameObject: {fileID: 114710}
  m_LocalRotation: {x: 0, y: 0, z: 0, w: 1}
  m_LocalPosition: {x: 0, y: 0, z: 0}
  m_LocalScale: {x: 1, y: 1, z: 1}
  m_Children: []
  m_Father: {fileID: 0}
  m_RootOrder: 0
--- !u!114 &11409508
MonoBehaviour:
  m_ObjectHideFlags: 1
  m_PrefabParentObject: {fileID: 0}
  m_PrefabInternal: {fileID: 100100000}
  m_GameObject: {fileID: 114710}
  m_Enabled: 1
  m_EditorHideFlags: 0
  m_Script: {fileID: 11500000, guid: 3f6cb104cb29b4e4b97127b73013ca6c, type: 3}
  m_Name: 
  m_EditorClassIdentifier: 
  numberOfPlayers: 2
  playerPosition: {x: 0, y: 0, z: 0}
  playerDistance: 4
  deathBounds:
    m_Center: {x: 0, y: 0, z: 0}
    m_Extent: {x: 15, y: 15, z: 99999}
  pointSymbolPrefab: {fileID: 11428824, guid: 45b37c307db1c1e458eaab951864d78e, type: 2}
  playerPrefab: {fileID: 0}
  trophyPosition: {x: 0, y: 3}
  spawningPoints: {fileID: 0}
  postGameTimeout:
    remaining: 0
    total: 0
    on: 0
  stages: []
--- !u!1001 &100100000
Prefab:
  m_ObjectHideFlags: 1
  serializedVersion: 2
  m_Modification:
    m_TransformParent: {fileID: 0}
    m_Modifications: []
    m_RemovedComponents: []
  m_ParentPrefab: {fileID: 0}
  m_RootGameObject: {fileID: 114710}
  m_IsPrefabParent: 1
