%YAML 1.1
%TAG !u! tag:unity3d.com,2011:
--- !u!1 &127830
GameObject:
  m_ObjectHideFlags: 0
  m_PrefabParentObject: {fileID: 0}
  m_PrefabInternal: {fileID: 100100000}
  serializedVersion: 4
  m_Component:
  - 4: {fileID: 490324}
  - 114: {fileID: 11450240}
  m_Layer: 0
  m_Name: BasicPlayerConfig
  m_TagString: Untagged
  m_Icon: {fileID: 0}
  m_NavMeshLayer: 0
  m_StaticEditorFlags: 0
  m_IsActive: 1
--- !u!4 &490324
Transform:
  m_ObjectHideFlags: 1
  m_PrefabParentObject: {fileID: 0}
  m_PrefabInternal: {fileID: 100100000}
  m_GameObject: {fileID: 127830}
  m_LocalRotation: {x: 0, y: 0, z: 0, w: 1}
  m_LocalPosition: {x: 0, y: 0, z: 0}
  m_LocalScale: {x: 1, y: 1, z: 1}
  m_Children: []
  m_Father: {fileID: 0}
  m_RootOrder: 0
--- !u!114 &11450240
MonoBehaviour:
  m_ObjectHideFlags: 1
  m_PrefabParentObject: {fileID: 0}
  m_PrefabInternal: {fileID: 100100000}
  m_GameObject: {fileID: 127830}
  m_Enabled: 1
  m_EditorHideFlags: 0
  m_Script: {fileID: 11500000, guid: 645444a0d3197e24b89367c7048752c3, type: 3}
  m_Name: 
  m_EditorClassIdentifier: 
  jumpIntensity: 15
  deadzone: .400000006
  runIntensity: 2
  maxRunSpeed: 8.10999966
  runDecrease: .579999983
  maxFallSpeed: -15
  gravity: 8
  airControl: 1.5
  airLimit: 8.10999966
  airDecrease: .980000019
  standLimit: .600000024
  stepLimit: .5
  stepPortion: 1
  fullStepLimit: .100000001
  horizontalNormalLimit: 0
  wallLimit: .100000001
  maxWallFallSpeed: -1
  onWallJumpSpeed: {x: 8, y: 15}
  holdingWallCooldownLimit: .100000001
  standingCooldownLimit: .100000001
  throwBoulderSpeed: 20
  bounceSpeed: 15
  dash: 25
  dashTime: .200000003
  redashTime: .600000024
  dashEndSpeed: 5
  throwThrashold: .400000006
  blockGravity: 2
  hitTime: .5
  hitIntensity: 15
  blockSpeedHit: 0
  hitIncrease: 0
  hitMultiplierMax: 0
  crouchLimit: -.800000012
  dashSpeedHit: 0
--- !u!1001 &100100000
Prefab:
  m_ObjectHideFlags: 1
  serializedVersion: 2
  m_Modification:
    m_TransformParent: {fileID: 0}
    m_Modifications: []
    m_RemovedComponents: []
  m_ParentPrefab: {fileID: 0}
  m_RootGameObject: {fileID: 127830}
  m_IsPrefabParent: 1
