%YAML 1.1
%TAG !u! tag:unity3d.com,2011:
--- !u!1 &116198
GameObject:
  m_ObjectHideFlags: 0
  m_PrefabParentObject: {fileID: 0}
  m_PrefabInternal: {fileID: 100100000}
  serializedVersion: 4
  m_Component:
  - 4: {fileID: 413452}
  - 114: {fileID: 11495208}
  m_Layer: 0
  m_Name: PrefabFactory
  m_TagString: Untagged
  m_Icon: {fileID: 0}
  m_NavMeshLayer: 0
  m_StaticEditorFlags: 0
  m_IsActive: 1
--- !u!4 &413452
Transform:
  m_ObjectHideFlags: 1
  m_PrefabParentObject: {fileID: 0}
  m_PrefabInternal: {fileID: 100100000}
  m_GameObject: {fileID: 116198}
  m_LocalRotation: {x: 0, y: 0, z: 0, w: 1}
  m_LocalPosition: {x: -.363225877, y: 1.90599024, z: -.5}
  m_LocalScale: {x: 1, y: 1, z: 1}
  m_Children: []
  m_Father: {fileID: 0}
  m_RootOrder: 0
--- !u!114 &11495208
MonoBehaviour:
  m_ObjectHideFlags: 1
  m_PrefabParentObject: {fileID: 0}
  m_PrefabInternal: {fileID: 100100000}
  m_GameObject: {fileID: 116198}
  m_Enabled: 1
  m_EditorHideFlags: 0
  m_Script: {fileID: 11500000, guid: ef16b5f148fc4704788da167a4d07171, type: 3}
  m_Name: 
  m_EditorClassIdentifier: 
  x:
  - key: PointSymbol
    value: {fileID: 121252, guid: 45b37c307db1c1e458eaab951864d78e, type: 2}
  - key: GroundBlock
    value: {fileID: 0}
  - key: 
    value: {fileID: 0}
  - key: 
    value: {fileID: 0}
  - key: 
    value: {fileID: 0}
  - key: 
    value: {fileID: 0}
  - key: 
    value: {fileID: 0}
  - key: 
    value: {fileID: 0}
  - key: 
    value: {fileID: 0}
  - key: 
    value: {fileID: 0}
--- !u!1001 &100100000
Prefab:
  m_ObjectHideFlags: 1
  serializedVersion: 2
  m_Modification:
    m_TransformParent: {fileID: 0}
    m_Modifications: []
    m_RemovedComponents: []
  m_ParentPrefab: {fileID: 0}
  m_RootGameObject: {fileID: 116198}
  m_IsPrefabParent: 1
